verilog/pixelTop_tb.vcd
$date
	Fri Nov 19 03:15:13 2021
$end
$version
	Icarus Verilog
$end
$timescale
	1ps
$end
$scope module pixelTop_tb $end
$var wire 1 ! anaReset $end
$var wire 1 " read2 $end
$var wire 1 # read1 $end
$var wire 1 $ expose $end
$var wire 1 % erase $end
$var wire 16 & data_out [15:0] $end
$var wire 1 ' convert $end
$var wire 1 ( anaRamp $end
$var wire 1 ) anaBias1 $end
$var reg 1 * clk $end
$var reg 1 + reset $end
$scope module pt $end
$var wire 1 * CLK $end
$var wire 1 + RESET $end
$var wire 1 ! VRESET $end
$var wire 1 ) VBN1 $end
$var wire 1 " READ2 $end
$var wire 1 # READ1 $end
$var wire 1 ( RAMP $end
$var wire 1 $ EXPOSE $end
$var wire 1 % ERASE $end
$var wire 16 , DATA_OUT [15:0] $end
$var wire 1 ' CONVERT $end
$scope module pa $end
$var wire 1 * CLK $end
$var wire 1 + RESET $end
$var wire 1 ! VRESET $end
$var wire 8 - pixData1 [7:0] $end
$var wire 8 . pixData2 [7:0] $end
$var wire 8 / pixData3 [7:0] $end
$var wire 8 0 pixData4 [7:0] $end
$var wire 1 ) VBN1 $end
$var wire 1 " READ2 $end
$var wire 1 # READ1 $end
$var wire 1 ( RAMP $end
$var wire 1 $ EXPOSE $end
$var wire 1 % ERASE $end
$var wire 1 ' CONVERT $end
$var reg 16 1 DATA_OUT [15:0] $end
$var reg 8 2 data [7:0] $end
$var reg 8 3 out [7:0] $end
$scope module ps1 $end
$var wire 8 4 DATA [7:0] $end
$var wire 1 ( RAMP $end
$var wire 1 + RESET $end
$var wire 1 ) VBN1 $end
$var wire 1 # READ $end
$var wire 1 $ EXPOSE $end
$var wire 1 % ERASE $end
$var reg 1 5 cmp $end
$var reg 8 6 p_data [7:0] $end
$var real 1 7 adc $end
$var real 1 8 lsb $end
$var real 1 9 tmp $end
$var real 1 : v_erase $end
$upscope $end
$scope module ps2 $end
$var wire 8 ; DATA [7:0] $end
$var wire 1 ( RAMP $end
$var wire 1 + RESET $end
$var wire 1 ) VBN1 $end
$var wire 1 " READ $end
$var wire 1 $ EXPOSE $end
$var wire 1 % ERASE $end
$var reg 1 < cmp $end
$var reg 8 = p_data [7:0] $end
$var real 1 > adc $end
$var real 1 ? lsb $end
$var real 1 @ tmp $end
$var real 1 A v_erase $end
$upscope $end
$scope module ps3 $end
$var wire 8 B DATA [7:0] $end
$var wire 1 ( RAMP $end
$var wire 1 + RESET $end
$var wire 1 ) VBN1 $end
$var wire 1 # READ $end
$var wire 1 $ EXPOSE $end
$var wire 1 % ERASE $end
$var reg 1 C cmp $end
$var reg 8 D p_data [7:0] $end
$var real 1 E adc $end
$var real 1 F lsb $end
$var real 1 G tmp $end
$var real 1 H v_erase $end
$upscope $end
$scope module ps4 $end
$var wire 8 I DATA [7:0] $end
$var wire 1 ( RAMP $end
$var wire 1 + RESET $end
$var wire 1 ) VBN1 $end
$var wire 1 " READ $end
$var wire 1 $ EXPOSE $end
$var wire 1 % ERASE $end
$var reg 1 J cmp $end
$var reg 8 K p_data [7:0] $end
$var real 1 L adc $end
$var real 1 M lsb $end
$var real 1 N tmp $end
$var real 1 O v_erase $end
$upscope $end
$upscope $end
$scope module statemachine $end
$var wire 1 * clk $end
$var wire 1 + reset $end
$var reg 1 ' convert $end
$var reg 1 % erase $end
$var reg 1 $ expose $end
$var reg 3 P next_state [2:0] $end
$var reg 1 # read1 $end
$var reg 1 " read2 $end
$var reg 3 Q state [2:0] $end
$var integer 32 R counter [31:0] $end
$upscope $end
$upscope $end
$upscope $end
$enddefinitions $end
#0
$dumpvars
b0 R
b101 Q
b0 P
r1.2 O
r0 N
r0.004705882352941176 M
r0 L
bx K
xJ
bx I
r1.2 H
r0 G
r0.004705882352941176 F
r0 E
bx D
xC
bx B
r1.2 A
r0 @
r0.004705882352941176 ?
r0 >
bx =
x<
bx ;
r1.2 :
r0 9
r0.004705882352941176 8
r0 7
bx 6
x5
bx 4
b0 3
b0 2
b0 1
bx 0
bx /
bx .
bx -
b0 ,
1+
0*
0)
0(
0'
b0 &
x%
x$
x#
x"
1!
$end
#500000
b0 Q
x)
0+
1*
#1000000
b0 0
b0 I
b0 .
b0 ;
b0 /
b0 B
b0 -
b0 4
0J
b0 K
r1.2 N
0C
b0 D
r1.2 G
0<
b0 =
r1.2 @
05
b0 6
r1.2 9
0$
0"
0#
1%
0)
0*
#1500000
b1 R
1*
#2000000
0*
#2500000
b10 R
1*
#3000000
0*
#3500000
b11 R
1*
#4000000
0*
#4500000
b100 R
1*
#5000000
0*
#5500000
b101 R
1*
#6000000
0*
#6500000
b101 Q
b1 P
b110 R
1*
#7000000
0%
0*
#7500000
b1 Q
b0 R
1*
#8000000
1$
0*
#8500000
r1.197647058823529 N
r1.197647058823529 G
r1.197647058823529 @
r1.197647058823529 9
b1 R
1)
1*
#9000000
0)
0*
#9500000
r1.195294117647059 9
r1.195294117647059 @
r1.195294117647059 G
r1.195294117647059 N
b10 R
1)
1*
#10000000
0)
0*
#10500000
r1.192941176470588 N
r1.192941176470588 G
r1.192941176470588 @
r1.192941176470588 9
b11 R
1)
1*
#11000000
0)
0*
#11500000
r1.190588235294117 9
r1.190588235294117 @
r1.190588235294117 G
r1.190588235294117 N
b100 R
1)
1*
#12000000
0)
0*
#12500000
r1.188235294117647 N
r1.188235294117647 G
r1.188235294117647 @
r1.188235294117647 9
b101 R
1)
1*
#13000000
0)
0*
#13500000
r1.185882352941176 9
r1.185882352941176 @
r1.185882352941176 G
r1.185882352941176 N
b110 R
1)
1*
#14000000
0)
0*
#14500000
r1.183529411764705 N
r1.183529411764705 G
r1.183529411764705 @
r1.183529411764705 9
b111 R
1)
1*
#15000000
0)
0*
#15500000
r1.181176470588235 9
r1.181176470588235 @
r1.181176470588235 G
r1.181176470588235 N
b1000 R
1)
1*
#16000000
0)
0*
#16500000
r1.178823529411764 N
r1.178823529411764 G
r1.178823529411764 @
r1.178823529411764 9
b1001 R
1)
1*
#17000000
0)
0*
#17500000
r1.176470588235293 9
r1.176470588235293 @
r1.176470588235293 G
r1.176470588235293 N
b1010 R
1)
1*
#18000000
0)
0*
#18500000
r1.174117647058823 N
r1.174117647058823 G
r1.174117647058823 @
r1.174117647058823 9
b1011 R
1)
1*
#19000000
0)
0*
#19500000
r1.171764705882352 9
r1.171764705882352 @
r1.171764705882352 G
r1.171764705882352 N
b1100 R
1)
1*
#20000000
0)
0*
#20500000
r1.169411764705881 N
r1.169411764705881 G
r1.169411764705881 @
r1.169411764705881 9
b1101 R
1)
1*
#21000000
0)
0*
#21500000
r1.167058823529411 9
r1.167058823529411 @
r1.167058823529411 G
r1.167058823529411 N
b1110 R
1)
1*
#22000000
0)
0*
#22500000
r1.16470588235294 N
r1.16470588235294 G
r1.16470588235294 @
r1.16470588235294 9
b1111 R
1)
1*
#23000000
0)
0*
#23500000
r1.162352941176469 9
r1.162352941176469 @
r1.162352941176469 G
r1.162352941176469 N
b10000 R
1)
1*
#24000000
0)
0*
#24500000
r1.159999999999999 N
r1.159999999999999 G
r1.159999999999999 @
r1.159999999999999 9
b10001 R
1)
1*
#25000000
0)
0*
#25500000
r1.157647058823528 9
r1.157647058823528 @
r1.157647058823528 G
r1.157647058823528 N
b10010 R
1)
1*
#26000000
0)
0*
#26500000
r1.155294117647057 N
r1.155294117647057 G
r1.155294117647057 @
r1.155294117647057 9
b10011 R
1)
1*
#27000000
0)
0*
#27500000
r1.152941176470587 9
r1.152941176470587 @
r1.152941176470587 G
r1.152941176470587 N
b10100 R
1)
1*
#28000000
0)
0*
#28500000
r1.150588235294116 N
r1.150588235294116 G
r1.150588235294116 @
r1.150588235294116 9
b10101 R
1)
1*
#29000000
0)
0*
#29500000
r1.148235294117645 9
r1.148235294117645 @
r1.148235294117645 G
r1.148235294117645 N
b10110 R
1)
1*
#30000000
0)
0*
#30500000
r1.145882352941175 N
r1.145882352941175 G
r1.145882352941175 @
r1.145882352941175 9
b10111 R
1)
1*
#31000000
0)
0*
#31500000
r1.143529411764704 9
r1.143529411764704 @
r1.143529411764704 G
r1.143529411764704 N
b11000 R
1)
1*
#32000000
0)
0*
#32500000
r1.141176470588233 N
r1.141176470588233 G
r1.141176470588233 @
r1.141176470588233 9
b11001 R
1)
1*
#33000000
0)
0*
#33500000
r1.138823529411763 9
r1.138823529411763 @
r1.138823529411763 G
r1.138823529411763 N
b11010 R
1)
1*
#34000000
0)
0*
#34500000
r1.136470588235292 N
r1.136470588235292 G
r1.136470588235292 @
r1.136470588235292 9
b11011 R
1)
1*
#35000000
0)
0*
#35500000
r1.134117647058821 9
r1.134117647058821 @
r1.134117647058821 G
r1.134117647058821 N
b11100 R
1)
1*
#36000000
0)
0*
#36500000
r1.131764705882351 N
r1.131764705882351 G
r1.131764705882351 @
r1.131764705882351 9
b11101 R
1)
1*
#37000000
0)
0*
#37500000
r1.12941176470588 9
r1.12941176470588 @
r1.12941176470588 G
r1.12941176470588 N
b11110 R
1)
1*
#38000000
0)
0*
#38500000
r1.127058823529409 N
r1.127058823529409 G
r1.127058823529409 @
r1.127058823529409 9
b11111 R
1)
1*
#39000000
0)
0*
#39500000
r1.124705882352939 9
r1.124705882352939 @
r1.124705882352939 G
r1.124705882352939 N
b100000 R
1)
1*
#40000000
0)
0*
#40500000
r1.122352941176468 N
r1.122352941176468 G
r1.122352941176468 @
r1.122352941176468 9
b100001 R
1)
1*
#41000000
0)
0*
#41500000
r1.119999999999997 9
r1.119999999999997 @
r1.119999999999997 G
r1.119999999999997 N
b100010 R
1)
1*
#42000000
0)
0*
#42500000
r1.117647058823527 N
r1.117647058823527 G
r1.117647058823527 @
r1.117647058823527 9
b100011 R
1)
1*
#43000000
0)
0*
#43500000
r1.115294117647056 9
r1.115294117647056 @
r1.115294117647056 G
r1.115294117647056 N
b100100 R
1)
1*
#44000000
0)
0*
#44500000
r1.112941176470585 N
r1.112941176470585 G
r1.112941176470585 @
r1.112941176470585 9
b100101 R
1)
1*
#45000000
0)
0*
#45500000
r1.110588235294115 9
r1.110588235294115 @
r1.110588235294115 G
r1.110588235294115 N
b100110 R
1)
1*
#46000000
0)
0*
#46500000
r1.108235294117644 N
r1.108235294117644 G
r1.108235294117644 @
r1.108235294117644 9
b100111 R
1)
1*
#47000000
0)
0*
#47500000
r1.105882352941173 9
r1.105882352941173 @
r1.105882352941173 G
r1.105882352941173 N
b101000 R
1)
1*
#48000000
0)
0*
#48500000
r1.103529411764703 N
r1.103529411764703 G
r1.103529411764703 @
r1.103529411764703 9
b101001 R
1)
1*
#49000000
0)
0*
#49500000
r1.101176470588232 9
r1.101176470588232 @
r1.101176470588232 G
r1.101176470588232 N
b101010 R
1)
1*
#50000000
0)
0*
#50500000
r1.098823529411761 N
r1.098823529411761 G
r1.098823529411761 @
r1.098823529411761 9
b101011 R
1)
1*
#51000000
0)
0*
#51500000
r1.096470588235291 9
r1.096470588235291 @
r1.096470588235291 G
r1.096470588235291 N
b101100 R
1)
1*
#52000000
0)
0*
#52500000
r1.09411764705882 N
r1.09411764705882 G
r1.09411764705882 @
r1.09411764705882 9
b101101 R
1)
1*
#53000000
0)
0*
#53500000
r1.091764705882349 9
r1.091764705882349 @
r1.091764705882349 G
r1.091764705882349 N
b101110 R
1)
1*
#54000000
0)
0*
#54500000
r1.089411764705879 N
r1.089411764705879 G
r1.089411764705879 @
r1.089411764705879 9
b101111 R
1)
1*
#55000000
0)
0*
#55500000
r1.087058823529408 9
r1.087058823529408 @
r1.087058823529408 G
r1.087058823529408 N
b110000 R
1)
1*
#56000000
0)
0*
#56500000
r1.084705882352937 N
r1.084705882352937 G
r1.084705882352937 @
r1.084705882352937 9
b110001 R
1)
1*
#57000000
0)
0*
#57500000
r1.082352941176467 9
r1.082352941176467 @
r1.082352941176467 G
r1.082352941176467 N
b110010 R
1)
1*
#58000000
0)
0*
#58500000
r1.079999999999996 N
r1.079999999999996 G
r1.079999999999996 @
r1.079999999999996 9
b110011 R
1)
1*
#59000000
0)
0*
#59500000
r1.077647058823525 9
r1.077647058823525 @
r1.077647058823525 G
r1.077647058823525 N
b110100 R
1)
1*
#60000000
0)
0*
#60500000
r1.075294117647055 N
r1.075294117647055 G
r1.075294117647055 @
r1.075294117647055 9
b110101 R
1)
1*
#61000000
0)
0*
#61500000
r1.072941176470584 9
r1.072941176470584 @
r1.072941176470584 G
r1.072941176470584 N
b110110 R
1)
1*
#62000000
0)
0*
#62500000
r1.070588235294113 N
r1.070588235294113 G
r1.070588235294113 @
r1.070588235294113 9
b110111 R
1)
1*
#63000000
0)
0*
#63500000
r1.068235294117643 9
r1.068235294117643 @
r1.068235294117643 G
r1.068235294117643 N
b111000 R
1)
1*
#64000000
0)
0*
#64500000
r1.065882352941172 N
r1.065882352941172 G
r1.065882352941172 @
r1.065882352941172 9
b111001 R
1)
1*
#65000000
0)
0*
#65500000
r1.063529411764701 9
r1.063529411764701 @
r1.063529411764701 G
r1.063529411764701 N
b111010 R
1)
1*
#66000000
0)
0*
#66500000
r1.061176470588231 N
r1.061176470588231 G
r1.061176470588231 @
r1.061176470588231 9
b111011 R
1)
1*
#67000000
0)
0*
#67500000
r1.05882352941176 9
r1.05882352941176 @
r1.05882352941176 G
r1.05882352941176 N
b111100 R
1)
1*
#68000000
0)
0*
#68500000
r1.056470588235289 N
r1.056470588235289 G
r1.056470588235289 @
r1.056470588235289 9
b111101 R
1)
1*
#69000000
0)
0*
#69500000
r1.054117647058818 9
r1.054117647058818 @
r1.054117647058818 G
r1.054117647058818 N
b111110 R
1)
1*
#70000000
0)
0*
#70500000
r1.051764705882348 N
r1.051764705882348 G
r1.051764705882348 @
r1.051764705882348 9
b111111 R
1)
1*
#71000000
0)
0*
#71500000
r1.049411764705877 9
r1.049411764705877 @
r1.049411764705877 G
r1.049411764705877 N
b1000000 R
1)
1*
#72000000
0)
0*
#72500000
r1.047058823529406 N
r1.047058823529406 G
r1.047058823529406 @
r1.047058823529406 9
b1000001 R
1)
1*
#73000000
0)
0*
#73500000
r1.044705882352936 9
r1.044705882352936 @
r1.044705882352936 G
r1.044705882352936 N
b1000010 R
1)
1*
#74000000
0)
0*
#74500000
r1.042352941176465 N
r1.042352941176465 G
r1.042352941176465 @
r1.042352941176465 9
b1000011 R
1)
1*
#75000000
0)
0*
#75500000
r1.039999999999994 9
r1.039999999999994 @
r1.039999999999994 G
r1.039999999999994 N
b1000100 R
1)
1*
#76000000
0)
0*
#76500000
r1.037647058823524 N
r1.037647058823524 G
r1.037647058823524 @
r1.037647058823524 9
b1000101 R
1)
1*
#77000000
0)
0*
#77500000
r1.035294117647053 9
r1.035294117647053 @
r1.035294117647053 G
r1.035294117647053 N
b1000110 R
1)
1*
#78000000
0)
0*
#78500000
r1.032941176470582 N
r1.032941176470582 G
r1.032941176470582 @
r1.032941176470582 9
b1000111 R
1)
1*
#79000000
0)
0*
#79500000
r1.030588235294112 9
r1.030588235294112 @
r1.030588235294112 G
r1.030588235294112 N
b1001000 R
1)
1*
#80000000
0)
0*
#80500000
r1.028235294117641 N
r1.028235294117641 G
r1.028235294117641 @
r1.028235294117641 9
b1001001 R
1)
1*
#81000000
0)
0*
#81500000
r1.02588235294117 9
r1.02588235294117 @
r1.02588235294117 G
r1.02588235294117 N
b1001010 R
1)
1*
#82000000
0)
0*
#82500000
r1.0235294117647 N
r1.0235294117647 G
r1.0235294117647 @
r1.0235294117647 9
b1001011 R
1)
1*
#83000000
0)
0*
#83500000
r1.021176470588229 9
r1.021176470588229 @
r1.021176470588229 G
r1.021176470588229 N
b1001100 R
1)
1*
#84000000
0)
0*
#84500000
r1.018823529411758 N
r1.018823529411758 G
r1.018823529411758 @
r1.018823529411758 9
b1001101 R
1)
1*
#85000000
0)
0*
#85500000
r1.016470588235288 9
r1.016470588235288 @
r1.016470588235288 G
r1.016470588235288 N
b1001110 R
1)
1*
#86000000
0)
0*
#86500000
r1.014117647058817 N
r1.014117647058817 G
r1.014117647058817 @
r1.014117647058817 9
b1001111 R
1)
1*
#87000000
0)
0*
#87500000
r1.011764705882346 9
r1.011764705882346 @
r1.011764705882346 G
r1.011764705882346 N
b1010000 R
1)
1*
#88000000
0)
0*
#88500000
r1.009411764705876 N
r1.009411764705876 G
r1.009411764705876 @
r1.009411764705876 9
b1010001 R
1)
1*
#89000000
0)
0*
#89500000
r1.007058823529405 9
r1.007058823529405 @
r1.007058823529405 G
r1.007058823529405 N
b1010010 R
1)
1*
#90000000
0)
0*
#90500000
r1.004705882352934 N
r1.004705882352934 G
r1.004705882352934 @
r1.004705882352934 9
b1010011 R
1)
1*
#91000000
0)
0*
#91500000
r1.002352941176464 9
r1.002352941176464 @
r1.002352941176464 G
r1.002352941176464 N
b1010100 R
1)
1*
#92000000
0)
0*
#92500000
r0.9999999999999932 N
r0.9999999999999932 G
r0.9999999999999932 @
r0.9999999999999932 9
b1010101 R
1)
1*
#93000000
0)
0*
#93500000
r0.9976470588235227 9
r0.9976470588235227 @
r0.9976470588235227 G
r0.9976470588235227 N
b1010110 R
1)
1*
#94000000
0)
0*
#94500000
r0.9952941176470521 N
r0.9952941176470521 G
r0.9952941176470521 @
r0.9952941176470521 9
b1010111 R
1)
1*
#95000000
0)
0*
#95500000
r0.9929411764705816 9
r0.9929411764705816 @
r0.9929411764705816 G
r0.9929411764705816 N
b1011000 R
1)
1*
#96000000
0)
0*
#96500000
r0.990588235294111 N
r0.990588235294111 G
r0.990588235294111 @
r0.990588235294111 9
b1011001 R
1)
1*
#97000000
0)
0*
#97500000
r0.9882352941176404 9
r0.9882352941176404 @
r0.9882352941176404 G
r0.9882352941176404 N
b1011010 R
1)
1*
#98000000
0)
0*
#98500000
r0.9858823529411699 N
r0.9858823529411699 G
r0.9858823529411699 @
r0.9858823529411699 9
b1011011 R
1)
1*
#99000000
0)
0*
#99500000
r0.9835294117646993 9
r0.9835294117646993 @
r0.9835294117646993 G
r0.9835294117646993 N
b1011100 R
1)
1*
#100000000
0)
0*
#100500000
r0.9811764705882288 N
r0.9811764705882288 G
r0.9811764705882288 @
r0.9811764705882288 9
b1011101 R
1)
1*
#101000000
0)
0*
#101500000
r0.9788235294117582 9
r0.9788235294117582 @
r0.9788235294117582 G
r0.9788235294117582 N
b1011110 R
1)
1*
#102000000
0)
0*
#102500000
r0.9764705882352877 N
r0.9764705882352877 G
r0.9764705882352877 @
r0.9764705882352877 9
b1011111 R
1)
1*
#103000000
0)
0*
#103500000
r0.9741176470588171 9
r0.9741176470588171 @
r0.9741176470588171 G
r0.9741176470588171 N
b1100000 R
1)
1*
#104000000
0)
0*
#104500000
r0.9717647058823465 N
r0.9717647058823465 G
r0.9717647058823465 @
r0.9717647058823465 9
b1100001 R
1)
1*
#105000000
0)
0*
#105500000
r0.969411764705876 9
r0.969411764705876 @
r0.969411764705876 G
r0.969411764705876 N
b1100010 R
1)
1*
#106000000
0)
0*
#106500000
r0.9670588235294054 N
r0.9670588235294054 G
r0.9670588235294054 @
r0.9670588235294054 9
b1100011 R
1)
1*
#107000000
0)
0*
#107500000
r0.9647058823529349 9
r0.9647058823529349 @
r0.9647058823529349 G
r0.9647058823529349 N
b1100100 R
1)
1*
#108000000
0)
0*
#108500000
r0.9623529411764643 N
r0.9623529411764643 G
r0.9623529411764643 @
r0.9623529411764643 9
b1100101 R
1)
1*
#109000000
0)
0*
#109500000
r0.9599999999999937 9
r0.9599999999999937 @
r0.9599999999999937 G
r0.9599999999999937 N
b1100110 R
1)
1*
#110000000
0)
0*
#110500000
r0.9576470588235232 N
r0.9576470588235232 G
r0.9576470588235232 @
r0.9576470588235232 9
b1100111 R
1)
1*
#111000000
0)
0*
#111500000
r0.9552941176470526 9
r0.9552941176470526 @
r0.9552941176470526 G
r0.9552941176470526 N
b1101000 R
1)
1*
#112000000
0)
0*
#112500000
r0.9529411764705821 N
r0.9529411764705821 G
r0.9529411764705821 @
r0.9529411764705821 9
b1101001 R
1)
1*
#113000000
0)
0*
#113500000
r0.9505882352941115 9
r0.9505882352941115 @
r0.9505882352941115 G
r0.9505882352941115 N
b1101010 R
1)
1*
#114000000
0)
0*
#114500000
r0.948235294117641 N
r0.948235294117641 G
r0.948235294117641 @
r0.948235294117641 9
b1101011 R
1)
1*
#115000000
0)
0*
#115500000
r0.9458823529411704 9
r0.9458823529411704 @
r0.9458823529411704 G
r0.9458823529411704 N
b1101100 R
1)
1*
#116000000
0)
0*
#116500000
r0.9435294117646998 N
r0.9435294117646998 G
r0.9435294117646998 @
r0.9435294117646998 9
b1101101 R
1)
1*
#117000000
0)
0*
#117500000
r0.9411764705882293 9
r0.9411764705882293 @
r0.9411764705882293 G
r0.9411764705882293 N
b1101110 R
1)
1*
#118000000
0)
0*
#118500000
r0.9388235294117587 N
r0.9388235294117587 G
r0.9388235294117587 @
r0.9388235294117587 9
b1101111 R
1)
1*
#119000000
0)
0*
#119500000
r0.9364705882352882 9
r0.9364705882352882 @
r0.9364705882352882 G
r0.9364705882352882 N
b1110000 R
1)
1*
#120000000
0)
0*
#120500000
r0.9341176470588176 N
r0.9341176470588176 G
r0.9341176470588176 @
r0.9341176470588176 9
b1110001 R
1)
1*
#121000000
0)
0*
#121500000
r0.9317647058823471 9
r0.9317647058823471 @
r0.9317647058823471 G
r0.9317647058823471 N
b1110010 R
1)
1*
#122000000
0)
0*
#122500000
r0.9294117647058765 N
r0.9294117647058765 G
r0.9294117647058765 @
r0.9294117647058765 9
b1110011 R
1)
1*
#123000000
0)
0*
#123500000
r0.9270588235294059 9
r0.9270588235294059 @
r0.9270588235294059 G
r0.9270588235294059 N
b1110100 R
1)
1*
#124000000
0)
0*
#124500000
r0.9247058823529354 N
r0.9247058823529354 G
r0.9247058823529354 @
r0.9247058823529354 9
b1110101 R
1)
1*
#125000000
0)
0*
#125500000
r0.9223529411764648 9
r0.9223529411764648 @
r0.9223529411764648 G
r0.9223529411764648 N
b1110110 R
1)
1*
#126000000
0)
0*
#126500000
r0.9199999999999943 N
r0.9199999999999943 G
r0.9199999999999943 @
r0.9199999999999943 9
b1110111 R
1)
1*
#127000000
0)
0*
#127500000
r0.9176470588235237 9
r0.9176470588235237 @
r0.9176470588235237 G
r0.9176470588235237 N
b1111000 R
1)
1*
#128000000
0)
0*
#128500000
r0.9152941176470532 N
r0.9152941176470532 G
r0.9152941176470532 @
r0.9152941176470532 9
b1111001 R
1)
1*
#129000000
0)
0*
#129500000
r0.9129411764705826 9
r0.9129411764705826 @
r0.9129411764705826 G
r0.9129411764705826 N
b1111010 R
1)
1*
#130000000
0)
0*
#130500000
r0.910588235294112 N
r0.910588235294112 G
r0.910588235294112 @
r0.910588235294112 9
b1111011 R
1)
1*
#131000000
0)
0*
#131500000
r0.9082352941176415 9
r0.9082352941176415 @
r0.9082352941176415 G
r0.9082352941176415 N
b1111100 R
1)
1*
#132000000
0)
0*
#132500000
r0.9058823529411709 N
r0.9058823529411709 G
r0.9058823529411709 @
r0.9058823529411709 9
b1111101 R
1)
1*
#133000000
0)
0*
#133500000
r0.9035294117647004 9
r0.9035294117647004 @
r0.9035294117647004 G
r0.9035294117647004 N
b1111110 R
1)
1*
#134000000
0)
0*
#134500000
r0.9011764705882298 N
r0.9011764705882298 G
r0.9011764705882298 @
r0.9011764705882298 9
b1111111 R
1)
1*
#135000000
0)
0*
#135500000
r0.8988235294117592 9
r0.8988235294117592 @
r0.8988235294117592 G
r0.8988235294117592 N
b10000000 R
1)
1*
#136000000
0)
0*
#136500000
r0.8964705882352887 N
r0.8964705882352887 G
r0.8964705882352887 @
r0.8964705882352887 9
b10000001 R
1)
1*
#137000000
0)
0*
#137500000
r0.8941176470588181 9
r0.8941176470588181 @
r0.8941176470588181 G
r0.8941176470588181 N
b10000010 R
1)
1*
#138000000
0)
0*
#138500000
r0.8917647058823476 N
r0.8917647058823476 G
r0.8917647058823476 @
r0.8917647058823476 9
b10000011 R
1)
1*
#139000000
0)
0*
#139500000
r0.889411764705877 9
r0.889411764705877 @
r0.889411764705877 G
r0.889411764705877 N
b10000100 R
1)
1*
#140000000
0)
0*
#140500000
r0.8870588235294065 N
r0.8870588235294065 G
r0.8870588235294065 @
r0.8870588235294065 9
b10000101 R
1)
1*
#141000000
0)
0*
#141500000
r0.8847058823529359 9
r0.8847058823529359 @
r0.8847058823529359 G
r0.8847058823529359 N
b10000110 R
1)
1*
#142000000
0)
0*
#142500000
r0.8823529411764653 N
r0.8823529411764653 G
r0.8823529411764653 @
r0.8823529411764653 9
b10000111 R
1)
1*
#143000000
0)
0*
#143500000
r0.8799999999999948 9
r0.8799999999999948 @
r0.8799999999999948 G
r0.8799999999999948 N
b10001000 R
1)
1*
#144000000
0)
0*
#144500000
r0.8776470588235242 N
r0.8776470588235242 G
r0.8776470588235242 @
r0.8776470588235242 9
b10001001 R
1)
1*
#145000000
0)
0*
#145500000
r0.8752941176470537 9
r0.8752941176470537 @
r0.8752941176470537 G
r0.8752941176470537 N
b10001010 R
1)
1*
#146000000
0)
0*
#146500000
r0.8729411764705831 N
r0.8729411764705831 G
r0.8729411764705831 @
r0.8729411764705831 9
b10001011 R
1)
1*
#147000000
0)
0*
#147500000
r0.8705882352941126 9
r0.8705882352941126 @
r0.8705882352941126 G
r0.8705882352941126 N
b10001100 R
1)
1*
#148000000
0)
0*
#148500000
r0.868235294117642 N
r0.868235294117642 G
r0.868235294117642 @
r0.868235294117642 9
b10001101 R
1)
1*
#149000000
0)
0*
#149500000
r0.8658823529411714 9
r0.8658823529411714 @
r0.8658823529411714 G
r0.8658823529411714 N
b10001110 R
1)
1*
#150000000
0)
0*
#150500000
r0.8635294117647009 N
r0.8635294117647009 G
r0.8635294117647009 @
r0.8635294117647009 9
b10001111 R
1)
1*
#151000000
0)
0*
#151500000
r0.8611764705882303 9
r0.8611764705882303 @
r0.8611764705882303 G
r0.8611764705882303 N
b10010000 R
1)
1*
#152000000
0)
0*
#152500000
r0.8588235294117598 N
r0.8588235294117598 G
r0.8588235294117598 @
r0.8588235294117598 9
b10010001 R
1)
1*
#153000000
0)
0*
#153500000
r0.8564705882352892 9
r0.8564705882352892 @
r0.8564705882352892 G
r0.8564705882352892 N
b10010010 R
1)
1*
#154000000
0)
0*
#154500000
r0.8541176470588187 N
r0.8541176470588187 G
r0.8541176470588187 @
r0.8541176470588187 9
b10010011 R
1)
1*
#155000000
0)
0*
#155500000
r0.8517647058823481 9
r0.8517647058823481 @
r0.8517647058823481 G
r0.8517647058823481 N
b10010100 R
1)
1*
#156000000
0)
0*
#156500000
r0.8494117647058775 N
r0.8494117647058775 G
r0.8494117647058775 @
r0.8494117647058775 9
b10010101 R
1)
1*
#157000000
0)
0*
#157500000
r0.847058823529407 9
r0.847058823529407 @
r0.847058823529407 G
r0.847058823529407 N
b10010110 R
1)
1*
#158000000
0)
0*
#158500000
r0.8447058823529364 N
r0.8447058823529364 G
r0.8447058823529364 @
r0.8447058823529364 9
b10010111 R
1)
1*
#159000000
0)
0*
#159500000
r0.8423529411764659 9
r0.8423529411764659 @
r0.8423529411764659 G
r0.8423529411764659 N
b10011000 R
1)
1*
#160000000
0)
0*
#160500000
r0.8399999999999953 N
r0.8399999999999953 G
r0.8399999999999953 @
r0.8399999999999953 9
b10011001 R
1)
1*
#161000000
0)
0*
#161500000
r0.8376470588235247 9
r0.8376470588235247 @
r0.8376470588235247 G
r0.8376470588235247 N
b10011010 R
1)
1*
#162000000
0)
0*
#162500000
r0.8352941176470542 N
r0.8352941176470542 G
r0.8352941176470542 @
r0.8352941176470542 9
b10011011 R
1)
1*
#163000000
0)
0*
#163500000
r0.8329411764705836 9
r0.8329411764705836 @
r0.8329411764705836 G
r0.8329411764705836 N
b10011100 R
1)
1*
#164000000
0)
0*
#164500000
r0.8305882352941131 N
r0.8305882352941131 G
r0.8305882352941131 @
r0.8305882352941131 9
b10011101 R
1)
1*
#165000000
0)
0*
#165500000
r0.8282352941176425 9
r0.8282352941176425 @
r0.8282352941176425 G
r0.8282352941176425 N
b10011110 R
1)
1*
#166000000
0)
0*
#166500000
r0.825882352941172 N
r0.825882352941172 G
r0.825882352941172 @
r0.825882352941172 9
b10011111 R
1)
1*
#167000000
0)
0*
#167500000
r0.8235294117647014 9
r0.8235294117647014 @
r0.8235294117647014 G
r0.8235294117647014 N
b10100000 R
1)
1*
#168000000
0)
0*
#168500000
r0.8211764705882308 N
r0.8211764705882308 G
r0.8211764705882308 @
r0.8211764705882308 9
b10100001 R
1)
1*
#169000000
0)
0*
#169500000
r0.8188235294117603 9
r0.8188235294117603 @
r0.8188235294117603 G
r0.8188235294117603 N
b10100010 R
1)
1*
#170000000
0)
0*
#170500000
r0.8164705882352897 N
r0.8164705882352897 G
r0.8164705882352897 @
r0.8164705882352897 9
b10100011 R
1)
1*
#171000000
0)
0*
#171500000
r0.8141176470588192 9
r0.8141176470588192 @
r0.8141176470588192 G
r0.8141176470588192 N
b10100100 R
1)
1*
#172000000
0)
0*
#172500000
r0.8117647058823486 N
r0.8117647058823486 G
r0.8117647058823486 @
r0.8117647058823486 9
b10100101 R
1)
1*
#173000000
0)
0*
#173500000
r0.8094117647058781 9
r0.8094117647058781 @
r0.8094117647058781 G
r0.8094117647058781 N
b10100110 R
1)
1*
#174000000
0)
0*
#174500000
r0.8070588235294075 N
r0.8070588235294075 G
r0.8070588235294075 @
r0.8070588235294075 9
b10100111 R
1)
1*
#175000000
0)
0*
#175500000
r0.8047058823529369 9
r0.8047058823529369 @
r0.8047058823529369 G
r0.8047058823529369 N
b10101000 R
1)
1*
#176000000
0)
0*
#176500000
r0.8023529411764664 N
r0.8023529411764664 G
r0.8023529411764664 @
r0.8023529411764664 9
b10101001 R
1)
1*
#177000000
0)
0*
