verilog/pixelArray_tb.vcd
$date
	Fri Nov 19 03:11:22 2021
$end
$version
	Icarus Verilog
$end
$timescale
	1ps
$end
$scope module pixelArray_tb $end
$var wire 1 ! anaReset $end
$var wire 8 " data_out [7:0] $end
$var wire 1 # anaRamp $end
$var wire 1 $ anaBias1 $end
$var reg 1 % clk $end
$var reg 1 & convert $end
$var reg 1 ' erase $end
$var reg 1 ( expose $end
$var reg 1 ) read1 $end
$var reg 1 * read2 $end
$var reg 1 + reset $end
$scope module pa $end
$var wire 1 % CLK $end
$var wire 1 & CONVERT $end
$var wire 1 ' ERASE $end
$var wire 1 ( EXPOSE $end
$var wire 1 ) READ1 $end
$var wire 1 * READ2 $end
$var wire 1 + RESET $end
$var wire 1 ! VRESET $end
$var wire 8 , pixData1 [7:0] $end
$var wire 8 - pixData2 [7:0] $end
$var wire 8 . pixData3 [7:0] $end
$var wire 8 / pixData4 [7:0] $end
$var wire 1 $ VBN1 $end
$var wire 1 # RAMP $end
$var reg 16 0 DATA_OUT [15:0] $end
$var reg 8 1 data [7:0] $end
$var reg 8 2 out [7:0] $end
$scope module ps1 $end
$var wire 8 3 DATA [7:0] $end
$var wire 1 ' ERASE $end
$var wire 1 ( EXPOSE $end
$var wire 1 # RAMP $end
$var wire 1 ) READ $end
$var wire 1 + RESET $end
$var wire 1 $ VBN1 $end
$var reg 1 4 cmp $end
$var reg 8 5 p_data [7:0] $end
$var real 1 6 adc $end
$var real 1 7 lsb $end
$var real 1 8 tmp $end
$var real 1 9 v_erase $end
$upscope $end
$scope module ps2 $end
$var wire 8 : DATA [7:0] $end
$var wire 1 ' ERASE $end
$var wire 1 ( EXPOSE $end
$var wire 1 # RAMP $end
$var wire 1 * READ $end
$var wire 1 + RESET $end
$var wire 1 $ VBN1 $end
$var reg 1 ; cmp $end
$var reg 8 < p_data [7:0] $end
$var real 1 = adc $end
$var real 1 > lsb $end
$var real 1 ? tmp $end
$var real 1 @ v_erase $end
$upscope $end
$scope module ps3 $end
$var wire 8 A DATA [7:0] $end
$var wire 1 ' ERASE $end
$var wire 1 ( EXPOSE $end
$var wire 1 # RAMP $end
$var wire 1 ) READ $end
$var wire 1 + RESET $end
$var wire 1 $ VBN1 $end
$var reg 1 B cmp $end
$var reg 8 C p_data [7:0] $end
$var real 1 D adc $end
$var real 1 E lsb $end
$var real 1 F tmp $end
$var real 1 G v_erase $end
$upscope $end
$scope module ps4 $end
$var wire 8 H DATA [7:0] $end
$var wire 1 ' ERASE $end
$var wire 1 ( EXPOSE $end
$var wire 1 # RAMP $end
$var wire 1 * READ $end
$var wire 1 + RESET $end
$var wire 1 $ VBN1 $end
$var reg 1 I cmp $end
$var reg 8 J p_data [7:0] $end
$var real 1 K adc $end
$var real 1 L lsb $end
$var real 1 M tmp $end
$var real 1 N v_erase $end
$upscope $end
$upscope $end
$upscope $end
$enddefinitions $end
#0
$dumpvars
r1.2 N
r0 M
r0.004705882352941176 L
r0 K
bx J
xI
bx H
r1.2 G
r0 F
r0.004705882352941176 E
r0 D
bx C
xB
bx A
r1.2 @
r0 ?
r0.004705882352941176 >
r0 =
bx <
x;
bx :
r1.2 9
r0 8
r0.004705882352941176 7
r0 6
bx 5
x4
bx 3
b0 2
b0 1
b0 0
bx /
bx .
bx -
bx ,
1+
x*
x)
x(
x'
x&
0%
0$
0#
b0 "
1!
$end
#500000
14
1;
1B
1I
r0.004705882352941176 6
r0.004705882352941176 =
r0.004705882352941176 D
r0.004705882352941176 K
x#
x$
0+
1%
#1000000
b0 -
b0 :
b0 /
b0 H
b0 ,
b0 3
b0 .
b0 A
r0 K
0I
b0 J
r1.2 M
r0 D
0B
b0 C
r1.2 F
r0 =
0;
b0 <
r1.2 ?
r0 6
04
b0 5
r1.2 8
0#
0$
0*
0)
0&
0(
1'
0%
#1500000
1%
#2000000
0%
#2500000
1%
#3000000
0%
#3500000
1%
#4000000
0%
#4500000
1%
#5000000
0%
#5500000
1%
#6000000
0%
#6500000
1%
#7000000
0%
0'
#7500000
1%
#8000000
0%
1(
#8500000
r1.197647058823529 M
r1.197647058823529 F
r1.197647058823529 ?
r1.197647058823529 8
1$
1%
#9000000
0$
0%
#9500000
r1.195294117647059 8
r1.195294117647059 ?
r1.195294117647059 F
r1.195294117647059 M
1$
1%
#10000000
0$
0%
#10500000
r1.192941176470588 M
r1.192941176470588 F
r1.192941176470588 ?
r1.192941176470588 8
1$
1%
#11000000
0$
0%
#11500000
r1.190588235294117 8
r1.190588235294117 ?
r1.190588235294117 F
r1.190588235294117 M
1$
1%
#12000000
0$
0%
#12500000
r1.188235294117647 M
r1.188235294117647 F
r1.188235294117647 ?
r1.188235294117647 8
1$
1%
#13000000
0$
0%
#13500000
r1.185882352941176 8
r1.185882352941176 ?
r1.185882352941176 F
r1.185882352941176 M
1$
1%
#14000000
0$
0%
#14500000
r1.183529411764705 M
r1.183529411764705 F
r1.183529411764705 ?
r1.183529411764705 8
1$
1%
#15000000
0$
0%
#15500000
r1.181176470588235 8
r1.181176470588235 ?
r1.181176470588235 F
r1.181176470588235 M
1$
1%
#16000000
0$
0%
#16500000
r1.178823529411764 M
r1.178823529411764 F
r1.178823529411764 ?
r1.178823529411764 8
1$
1%
#17000000
0$
0%
#17500000
r1.176470588235293 8
r1.176470588235293 ?
r1.176470588235293 F
r1.176470588235293 M
1$
1%
#18000000
0$
0%
#18500000
r1.174117647058823 M
r1.174117647058823 F
r1.174117647058823 ?
r1.174117647058823 8
1$
1%
#19000000
0$
0%
#19500000
r1.171764705882352 8
r1.171764705882352 ?
r1.171764705882352 F
r1.171764705882352 M
1$
1%
#20000000
0$
0%
#20500000
r1.169411764705881 M
r1.169411764705881 F
r1.169411764705881 ?
r1.169411764705881 8
1$
1%
#21000000
0$
0%
#21500000
r1.167058823529411 8
r1.167058823529411 ?
r1.167058823529411 F
r1.167058823529411 M
1$
1%
#22000000
0$
0%
#22500000
r1.16470588235294 M
r1.16470588235294 F
r1.16470588235294 ?
r1.16470588235294 8
1$
1%
#23000000
0$
0%
#23500000
r1.162352941176469 8
r1.162352941176469 ?
r1.162352941176469 F
r1.162352941176469 M
1$
1%
#24000000
0$
0%
#24500000
r1.159999999999999 M
r1.159999999999999 F
r1.159999999999999 ?
r1.159999999999999 8
1$
1%
#25000000
0$
0%
#25500000
r1.157647058823528 8
r1.157647058823528 ?
r1.157647058823528 F
r1.157647058823528 M
1$
1%
#26000000
0$
0%
#26500000
r1.155294117647057 M
r1.155294117647057 F
r1.155294117647057 ?
r1.155294117647057 8
1$
1%
#27000000
0$
0%
#27500000
r1.152941176470587 8
r1.152941176470587 ?
r1.152941176470587 F
r1.152941176470587 M
1$
1%
#28000000
0$
0%
#28500000
r1.150588235294116 M
r1.150588235294116 F
r1.150588235294116 ?
r1.150588235294116 8
1$
1%
#29000000
0$
0%
#29500000
r1.148235294117645 8
r1.148235294117645 ?
r1.148235294117645 F
r1.148235294117645 M
1$
1%
#30000000
0$
0%
#30500000
r1.145882352941175 M
r1.145882352941175 F
r1.145882352941175 ?
r1.145882352941175 8
1$
1%
#31000000
0$
0%
#31500000
r1.143529411764704 8
r1.143529411764704 ?
r1.143529411764704 F
r1.143529411764704 M
1$
1%
#32000000
0$
0%
#32500000
r1.141176470588233 M
r1.141176470588233 F
r1.141176470588233 ?
r1.141176470588233 8
1$
1%
#33000000
0$
0%
#33500000
r1.138823529411763 8
r1.138823529411763 ?
r1.138823529411763 F
r1.138823529411763 M
1$
1%
#34000000
0$
0%
#34500000
r1.136470588235292 M
r1.136470588235292 F
r1.136470588235292 ?
r1.136470588235292 8
1$
1%
#35000000
0$
0%
#35500000
r1.134117647058821 8
r1.134117647058821 ?
r1.134117647058821 F
r1.134117647058821 M
1$
1%
#36000000
0$
0%
#36500000
r1.131764705882351 M
r1.131764705882351 F
r1.131764705882351 ?
r1.131764705882351 8
1$
1%
#37000000
0$
0%
#37500000
r1.12941176470588 8
r1.12941176470588 ?
r1.12941176470588 F
r1.12941176470588 M
1$
1%
#38000000
0$
0%
#38500000
r1.127058823529409 M
r1.127058823529409 F
r1.127058823529409 ?
r1.127058823529409 8
1$
1%
#39000000
0$
0%
#39500000
r1.124705882352939 8
r1.124705882352939 ?
r1.124705882352939 F
r1.124705882352939 M
1$
1%
#40000000
0$
0%
#40500000
r1.122352941176468 M
r1.122352941176468 F
r1.122352941176468 ?
r1.122352941176468 8
1$
1%
#41000000
0$
0%
#41500000
r1.119999999999997 8
r1.119999999999997 ?
r1.119999999999997 F
r1.119999999999997 M
1$
1%
#42000000
0$
0%
#42500000
r1.117647058823527 M
r1.117647058823527 F
r1.117647058823527 ?
r1.117647058823527 8
1$
1%
#43000000
0$
0%
#43500000
r1.115294117647056 8
r1.115294117647056 ?
r1.115294117647056 F
r1.115294117647056 M
1$
1%
#44000000
0$
0%
#44500000
r1.112941176470585 M
r1.112941176470585 F
r1.112941176470585 ?
r1.112941176470585 8
1$
1%
#45000000
0$
0%
#45500000
r1.110588235294115 8
r1.110588235294115 ?
r1.110588235294115 F
r1.110588235294115 M
1$
1%
#46000000
0$
0%
#46500000
r1.108235294117644 M
r1.108235294117644 F
r1.108235294117644 ?
r1.108235294117644 8
1$
1%
#47000000
0$
0%
#47500000
r1.105882352941173 8
r1.105882352941173 ?
r1.105882352941173 F
r1.105882352941173 M
1$
1%
#48000000
0$
0%
#48500000
r1.103529411764703 M
r1.103529411764703 F
r1.103529411764703 ?
r1.103529411764703 8
1$
1%
#49000000
0$
0%
#49500000
r1.101176470588232 8
r1.101176470588232 ?
r1.101176470588232 F
r1.101176470588232 M
1$
1%
#50000000
0$
0%
#50500000
r1.098823529411761 M
r1.098823529411761 F
r1.098823529411761 ?
r1.098823529411761 8
1$
1%
#51000000
0$
0%
#51500000
r1.096470588235291 8
r1.096470588235291 ?
r1.096470588235291 F
r1.096470588235291 M
1$
1%
#52000000
0$
0%
#52500000
r1.09411764705882 M
r1.09411764705882 F
r1.09411764705882 ?
r1.09411764705882 8
1$
1%
#53000000
0$
0%
#53500000
r1.091764705882349 8
r1.091764705882349 ?
r1.091764705882349 F
r1.091764705882349 M
1$
1%
#54000000
0$
0%
#54500000
r1.089411764705879 M
r1.089411764705879 F
r1.089411764705879 ?
r1.089411764705879 8
1$
1%
#55000000
0$
0%
#55500000
r1.087058823529408 8
r1.087058823529408 ?
r1.087058823529408 F
r1.087058823529408 M
1$
1%
#56000000
0$
0%
#56500000
r1.084705882352937 M
r1.084705882352937 F
r1.084705882352937 ?
r1.084705882352937 8
1$
1%
#57000000
0$
0%
#57500000
r1.082352941176467 8
r1.082352941176467 ?
r1.082352941176467 F
r1.082352941176467 M
1$
1%
#58000000
0$
0%
#58500000
r1.079999999999996 M
r1.079999999999996 F
r1.079999999999996 ?
r1.079999999999996 8
1$
1%
#59000000
0$
0%
#59500000
r1.077647058823525 8
r1.077647058823525 ?
r1.077647058823525 F
r1.077647058823525 M
1$
1%
#60000000
0$
0%
#60500000
r1.075294117647055 M
r1.075294117647055 F
r1.075294117647055 ?
r1.075294117647055 8
1$
1%
#61000000
0$
0%
#61500000
r1.072941176470584 8
r1.072941176470584 ?
r1.072941176470584 F
r1.072941176470584 M
1$
1%
#62000000
0$
0%
#62500000
r1.070588235294113 M
r1.070588235294113 F
r1.070588235294113 ?
r1.070588235294113 8
1$
1%
#63000000
0$
0%
#63500000
r1.068235294117643 8
r1.068235294117643 ?
r1.068235294117643 F
r1.068235294117643 M
1$
1%
#64000000
0$
0%
#64500000
r1.065882352941172 M
r1.065882352941172 F
r1.065882352941172 ?
r1.065882352941172 8
1$
1%
#65000000
0$
0%
#65500000
r1.063529411764701 8
r1.063529411764701 ?
r1.063529411764701 F
r1.063529411764701 M
1$
1%
#66000000
0$
0%
#66500000
r1.061176470588231 M
r1.061176470588231 F
r1.061176470588231 ?
r1.061176470588231 8
1$
1%
#67000000
0$
0%
#67500000
r1.05882352941176 8
r1.05882352941176 ?
r1.05882352941176 F
r1.05882352941176 M
1$
1%
#68000000
0$
0%
#68500000
r1.056470588235289 M
r1.056470588235289 F
r1.056470588235289 ?
r1.056470588235289 8
1$
1%
#69000000
0$
0%
#69500000
r1.054117647058818 8
r1.054117647058818 ?
r1.054117647058818 F
r1.054117647058818 M
1$
1%
#70000000
0$
0%
#70500000
r1.051764705882348 M
r1.051764705882348 F
r1.051764705882348 ?
r1.051764705882348 8
1$
1%
#71000000
0$
0%
#71500000
r1.049411764705877 8
r1.049411764705877 ?
r1.049411764705877 F
r1.049411764705877 M
1$
1%
#72000000
0$
0%
#72500000
r1.047058823529406 M
r1.047058823529406 F
r1.047058823529406 ?
r1.047058823529406 8
1$
1%
#73000000
0$
0%
#73500000
r1.044705882352936 8
r1.044705882352936 ?
r1.044705882352936 F
r1.044705882352936 M
1$
1%
#74000000
0$
0%
#74500000
r1.042352941176465 M
r1.042352941176465 F
r1.042352941176465 ?
r1.042352941176465 8
1$
1%
#75000000
0$
0%
#75500000
r1.039999999999994 8
r1.039999999999994 ?
r1.039999999999994 F
r1.039999999999994 M
1$
1%
#76000000
0$
0%
#76500000
r1.037647058823524 M
r1.037647058823524 F
r1.037647058823524 ?
r1.037647058823524 8
1$
1%
#77000000
0$
0%
#77500000
r1.035294117647053 8
r1.035294117647053 ?
r1.035294117647053 F
r1.035294117647053 M
1$
1%
#78000000
0$
0%
#78500000
r1.032941176470582 M
r1.032941176470582 F
r1.032941176470582 ?
r1.032941176470582 8
1$
1%
#79000000
0$
0%
#79500000
r1.030588235294112 8
r1.030588235294112 ?
r1.030588235294112 F
r1.030588235294112 M
1$
1%
#80000000
0$
0%
#80500000
r1.028235294117641 M
r1.028235294117641 F
r1.028235294117641 ?
r1.028235294117641 8
1$
1%
#81000000
0$
0%
#81500000
r1.02588235294117 8
r1.02588235294117 ?
r1.02588235294117 F
r1.02588235294117 M
1$
1%
#82000000
0$
0%
#82500000
r1.0235294117647 M
r1.0235294117647 F
r1.0235294117647 ?
r1.0235294117647 8
1$
1%
#83000000
0$
0%
#83500000
r1.021176470588229 8
r1.021176470588229 ?
r1.021176470588229 F
r1.021176470588229 M
1$
1%
#84000000
0$
0%
#84500000
r1.018823529411758 M
r1.018823529411758 F
r1.018823529411758 ?
r1.018823529411758 8
1$
1%
#85000000
0$
0%
#85500000
r1.016470588235288 8
r1.016470588235288 ?
r1.016470588235288 F
r1.016470588235288 M
1$
1%
#86000000
0$
0%
#86500000
r1.014117647058817 M
r1.014117647058817 F
r1.014117647058817 ?
r1.014117647058817 8
1$
1%
#87000000
0$
0%
#87500000
r1.011764705882346 8
r1.011764705882346 ?
r1.011764705882346 F
r1.011764705882346 M
1$
1%
#88000000
0$
0%
#88500000
r1.009411764705876 M
r1.009411764705876 F
r1.009411764705876 ?
r1.009411764705876 8
1$
1%
#89000000
0$
0%
#89500000
r1.007058823529405 8
r1.007058823529405 ?
r1.007058823529405 F
r1.007058823529405 M
1$
1%
#90000000
0$
0%
#90500000
r1.004705882352934 M
r1.004705882352934 F
r1.004705882352934 ?
r1.004705882352934 8
1$
1%
#91000000
0$
0%
#91500000
r1.002352941176464 8
r1.002352941176464 ?
r1.002352941176464 F
r1.002352941176464 M
1$
1%
#92000000
0$
0%
#92500000
r0.9999999999999932 M
r0.9999999999999932 F
r0.9999999999999932 ?
r0.9999999999999932 8
1$
1%
#93000000
0$
0%
#93500000
r0.9976470588235227 8
r0.9976470588235227 ?
r0.9976470588235227 F
r0.9976470588235227 M
1$
1%
#94000000
0$
0%
#94500000
r0.9952941176470521 M
r0.9952941176470521 F
r0.9952941176470521 ?
r0.9952941176470521 8
1$
1%
#95000000
0$
0%
#95500000
r0.9929411764705816 8
r0.9929411764705816 ?
r0.9929411764705816 F
r0.9929411764705816 M
1$
1%
#96000000
0$
0%
#96500000
r0.990588235294111 M
r0.990588235294111 F
r0.990588235294111 ?
r0.990588235294111 8
1$
1%
#97000000
0$
0%
#97500000
r0.9882352941176404 8
r0.9882352941176404 ?
r0.9882352941176404 F
r0.9882352941176404 M
1$
1%
#98000000
0$
0%
#98500000
r0.9858823529411699 M
r0.9858823529411699 F
r0.9858823529411699 ?
r0.9858823529411699 8
1$
1%
#99000000
0$
0%
#99500000
r0.9835294117646993 8
r0.9835294117646993 ?
r0.9835294117646993 F
r0.9835294117646993 M
1$
1%
#100000000
0$
0%
#100500000
r0.9811764705882288 M
r0.9811764705882288 F
r0.9811764705882288 ?
r0.9811764705882288 8
1$
1%
#101000000
0$
0%
#101500000
r0.9788235294117582 8
r0.9788235294117582 ?
r0.9788235294117582 F
r0.9788235294117582 M
1$
1%
#102000000
0$
0%
#102500000
r0.9764705882352877 M
r0.9764705882352877 F
r0.9764705882352877 ?
r0.9764705882352877 8
1$
1%
#103000000
0$
0%
#103500000
r0.9741176470588171 8
r0.9741176470588171 ?
r0.9741176470588171 F
r0.9741176470588171 M
1$
1%
#104000000
0$
0%
#104500000
r0.9717647058823465 M
r0.9717647058823465 F
r0.9717647058823465 ?
r0.9717647058823465 8
1$
1%
#105000000
0$
0%
#105500000
r0.969411764705876 8
r0.969411764705876 ?
r0.969411764705876 F
r0.969411764705876 M
1$
1%
#106000000
0$
0%
#106500000
r0.9670588235294054 M
r0.9670588235294054 F
r0.9670588235294054 ?
r0.9670588235294054 8
1$
1%
#107000000
0$
0%
#107500000
r0.9647058823529349 8
r0.9647058823529349 ?
r0.9647058823529349 F
r0.9647058823529349 M
1$
1%
#108000000
0$
0%
#108500000
r0.9623529411764643 M
r0.9623529411764643 F
r0.9623529411764643 ?
r0.9623529411764643 8
1$
1%
#109000000
0$
0%
#109500000
r0.9599999999999937 8
r0.9599999999999937 ?
r0.9599999999999937 F
r0.9599999999999937 M
1$
1%
#110000000
0$
0%
#110500000
r0.9576470588235232 M
r0.9576470588235232 F
r0.9576470588235232 ?
r0.9576470588235232 8
1$
1%
#111000000
0$
0%
#111500000
r0.9552941176470526 8
r0.9552941176470526 ?
r0.9552941176470526 F
r0.9552941176470526 M
1$
1%
#112000000
0$
0%
#112500000
r0.9529411764705821 M
r0.9529411764705821 F
r0.9529411764705821 ?
r0.9529411764705821 8
1$
1%
#113000000
0$
0%
#113500000
r0.9505882352941115 8
r0.9505882352941115 ?
r0.9505882352941115 F
r0.9505882352941115 M
1$
1%
#114000000
0$
0%
#114500000
r0.948235294117641 M
r0.948235294117641 F
r0.948235294117641 ?
r0.948235294117641 8
1$
1%
#115000000
0$
0%
#115500000
r0.9458823529411704 8
r0.9458823529411704 ?
r0.9458823529411704 F
r0.9458823529411704 M
1$
1%
#116000000
0$
0%
#116500000
r0.9435294117646998 M
r0.9435294117646998 F
r0.9435294117646998 ?
r0.9435294117646998 8
1$
1%
#117000000
0$
0%
#117500000
r0.9411764705882293 8
r0.9411764705882293 ?
r0.9411764705882293 F
r0.9411764705882293 M
1$
1%
#118000000
0$
0%
#118500000
r0.9388235294117587 M
r0.9388235294117587 F
r0.9388235294117587 ?
r0.9388235294117587 8
1$
1%
#119000000
0$
0%
#119500000
r0.9364705882352882 8
r0.9364705882352882 ?
r0.9364705882352882 F
r0.9364705882352882 M
1$
1%
#120000000
0$
0%
#120500000
r0.9341176470588176 M
r0.9341176470588176 F
r0.9341176470588176 ?
r0.9341176470588176 8
1$
1%
#121000000
0$
0%
#121500000
r0.9317647058823471 8
r0.9317647058823471 ?
r0.9317647058823471 F
r0.9317647058823471 M
1$
1%
#122000000
0$
0%
#122500000
r0.9294117647058765 M
r0.9294117647058765 F
r0.9294117647058765 ?
r0.9294117647058765 8
1$
1%
#123000000
0$
0%
#123500000
r0.9270588235294059 8
r0.9270588235294059 ?
r0.9270588235294059 F
r0.9270588235294059 M
1$
1%
#124000000
0$
0%
#124500000
r0.9247058823529354 M
r0.9247058823529354 F
r0.9247058823529354 ?
r0.9247058823529354 8
1$
1%
#125000000
0$
0%
#125500000
r0.9223529411764648 8
r0.9223529411764648 ?
r0.9223529411764648 F
r0.9223529411764648 M
1$
1%
#126000000
0$
0%
#126500000
r0.9199999999999943 M
r0.9199999999999943 F
r0.9199999999999943 ?
r0.9199999999999943 8
1$
1%
#127000000
0$
0%
#127500000
r0.9176470588235237 8
r0.9176470588235237 ?
r0.9176470588235237 F
r0.9176470588235237 M
1$
1%
#128000000
0$
0%
#128500000
r0.9152941176470532 M
r0.9152941176470532 F
r0.9152941176470532 ?
r0.9152941176470532 8
1$
1%
#129000000
0$
0%
#129500000
r0.9129411764705826 8
r0.9129411764705826 ?
r0.9129411764705826 F
r0.9129411764705826 M
1$
1%
#130000000
0$
0%
#130500000
r0.910588235294112 M
r0.910588235294112 F
r0.910588235294112 ?
r0.910588235294112 8
1$
1%
#131000000
0$
0%
#131500000
r0.9082352941176415 8
r0.9082352941176415 ?
r0.9082352941176415 F
r0.9082352941176415 M
1$
1%
#132000000
0$
0%
#132500000
r0.9058823529411709 M
r0.9058823529411709 F
r0.9058823529411709 ?
r0.9058823529411709 8
1$
1%
#133000000
0$
0%
#133500000
r0.9035294117647004 8
r0.9035294117647004 ?
r0.9035294117647004 F
r0.9035294117647004 M
1$
1%
#134000000
0$
0%
#134500000
r0.9011764705882298 M
r0.9011764705882298 F
r0.9011764705882298 ?
r0.9011764705882298 8
1$
1%
#135000000
0$
0%
#135500000
r0.8988235294117592 8
r0.8988235294117592 ?
r0.8988235294117592 F
r0.8988235294117592 M
1$
1%
#136000000
0$
0%
#136500000
r0.8964705882352887 M
r0.8964705882352887 F
r0.8964705882352887 ?
r0.8964705882352887 8
1$
1%
#137000000
0$
0%
#137500000
r0.8941176470588181 8
r0.8941176470588181 ?
r0.8941176470588181 F
r0.8941176470588181 M
1$
1%
#138000000
0$
0%
#138500000
r0.8917647058823476 M
r0.8917647058823476 F
r0.8917647058823476 ?
r0.8917647058823476 8
1$
1%
#139000000
0$
0%
#139500000
r0.889411764705877 8
r0.889411764705877 ?
r0.889411764705877 F
r0.889411764705877 M
1$
1%
#140000000
0$
0%
#140500000
r0.8870588235294065 M
r0.8870588235294065 F
r0.8870588235294065 ?
r0.8870588235294065 8
1$
1%
#141000000
0$
0%
#141500000
r0.8847058823529359 8
r0.8847058823529359 ?
r0.8847058823529359 F
r0.8847058823529359 M
1$
1%
#142000000
0$
0%
#142500000
r0.8823529411764653 M
r0.8823529411764653 F
r0.8823529411764653 ?
r0.8823529411764653 8
1$
1%
#143000000
0$
0%
#143500000
r0.8799999999999948 8
r0.8799999999999948 ?
r0.8799999999999948 F
r0.8799999999999948 M
1$
1%
#144000000
0$
0%
#144500000
r0.8776470588235242 M
r0.8776470588235242 F
r0.8776470588235242 ?
r0.8776470588235242 8
1$
1%
#145000000
0$
0%
#145500000
r0.8752941176470537 8
r0.8752941176470537 ?
r0.8752941176470537 F
r0.8752941176470537 M
1$
1%
#146000000
0$
0%
#146500000
r0.8729411764705831 M
r0.8729411764705831 F
r0.8729411764705831 ?
r0.8729411764705831 8
1$
1%
#147000000
0$
0%
#147500000
r0.8705882352941126 8
r0.8705882352941126 ?
r0.8705882352941126 F
r0.8705882352941126 M
1$
1%
#148000000
0$
0%
#148500000
r0.868235294117642 M
r0.868235294117642 F
r0.868235294117642 ?
r0.868235294117642 8
1$
1%
#149000000
0$
0%
#149500000
r0.8658823529411714 8
r0.8658823529411714 ?
r0.8658823529411714 F
r0.8658823529411714 M
1$
1%
#150000000
0$
0%
#150500000
r0.8635294117647009 M
r0.8635294117647009 F
r0.8635294117647009 ?
r0.8635294117647009 8
1$
1%
#151000000
0$
0%
#151500000
r0.8611764705882303 8
r0.8611764705882303 ?
r0.8611764705882303 F
r0.8611764705882303 M
1$
1%
#152000000
0$
0%
#152500000
r0.8588235294117598 M
r0.8588235294117598 F
r0.8588235294117598 ?
r0.8588235294117598 8
1$
1%
#153000000
0$
0%
#153500000
r0.8564705882352892 8
r0.8564705882352892 ?
r0.8564705882352892 F
r0.8564705882352892 M
1$
1%
#154000000
0$
0%
#154500000
r0.8541176470588187 M
r0.8541176470588187 F
r0.8541176470588187 ?
r0.8541176470588187 8
1$
1%
#155000000
0$
0%
#155500000
r0.8517647058823481 8
r0.8517647058823481 ?
r0.8517647058823481 F
r0.8517647058823481 M
1$
1%
#156000000
0$
0%
#156500000
r0.8494117647058775 M
r0.8494117647058775 F
r0.8494117647058775 ?
r0.8494117647058775 8
1$
1%
#157000000
0$
0%
#157500000
r0.847058823529407 8
r0.847058823529407 ?
r0.847058823529407 F
r0.847058823529407 M
1$
1%
#158000000
0$
0%
#158500000
r0.8447058823529364 M
r0.8447058823529364 F
r0.8447058823529364 ?
r0.8447058823529364 8
1$
1%
#159000000
0$
0%
#159500000
r0.8423529411764659 8
r0.8423529411764659 ?
r0.8423529411764659 F
r0.8423529411764659 M
1$
1%
#160000000
0$
0%
#160500000
r0.8399999999999953 M
r0.8399999999999953 F
r0.8399999999999953 ?
r0.8399999999999953 8
1$
1%
#161000000
0$
0%
#161500000
r0.8376470588235247 8
r0.8376470588235247 ?
r0.8376470588235247 F
r0.8376470588235247 M
1$
1%
#162000000
0$
0%
#162500000
r0.8352941176470542 M
r0.8352941176470542 F
r0.8352941176470542 ?
r0.8352941176470542 8
1$
1%
#163000000
0$
0%
#163500000
r0.8329411764705836 8
r0.8329411764705836 ?
r0.8329411764705836 F
r0.8329411764705836 M
1$
1%
#164000000
0$
0%
#164500000
r0.8305882352941131 M
r0.8305882352941131 F
r0.8305882352941131 ?
r0.8305882352941131 8
1$
1%
#165000000
0$
0%
#165500000
r0.8282352941176425 8
r0.8282352941176425 ?
r0.8282352941176425 F
r0.8282352941176425 M
1$
1%
#166000000
0$
0%
#166500000
r0.825882352941172 M
r0.825882352941172 F
r0.825882352941172 ?
r0.825882352941172 8
1$
1%
#167000000
0$
0%
#167500000
r0.8235294117647014 8
r0.8235294117647014 ?
r0.8235294117647014 F
r0.8235294117647014 M
1$
1%
#168000000
0$
0%
#168500000
r0.8211764705882308 M
r0.8211764705882308 F
r0.8211764705882308 ?
r0.8211764705882308 8
1$
1%
#169000000
0$
0%
#169500000
r0.8188235294117603 8
r0.8188235294117603 ?
r0.8188235294117603 F
r0.8188235294117603 M
1$
1%
#170000000
0$
0%
#170500000
r0.8164705882352897 M
r0.8164705882352897 F
r0.8164705882352897 ?
r0.8164705882352897 8
1$
1%
#171000000
0$
0%
#171500000
r0.8141176470588192 8
r0.8141176470588192 ?
r0.8141176470588192 F
r0.8141176470588192 M
1$
1%
#172000000
0$
0%
#172500000
r0.8117647058823486 M
r0.8117647058823486 F
r0.8117647058823486 ?
r0.8117647058823486 8
1$
1%
#173000000
0$
0%
#173500000
r0.8094117647058781 8
r0.8094117647058781 ?
r0.8094117647058781 F
r0.8094117647058781 M
1$
1%
#174000000
0$
0%
#174500000
r0.8070588235294075 M
r0.8070588235294075 F
r0.8070588235294075 ?
r0.8070588235294075 8
1$
1%
#175000000
0$
0%
#175500000
r0.8047058823529369 8
r0.8047058823529369 ?
r0.8047058823529369 F
r0.8047058823529369 M
1$
1%
#176000000
0$
0%
#176500000
r0.8023529411764664 M
r0.8023529411764664 F
r0.8023529411764664 ?
r0.8023529411764664 8
1$
1%
#177000000
0$
0%
#177500000
r0.7999999999999958 8
r0.7999999999999958 ?
r0.7999999999999958 F
r0.7999999999999958 M
1$
1%
#178000000
0$
0%
#178500000
r0.7976470588235253 M
r0.7976470588235253 F
r0.7976470588235253 ?
r0.7976470588235253 8
1$
1%
#179000000
0$
0%
#179500000
r0.7952941176470547 8
r0.7952941176470547 ?
r0.7952941176470547 F
r0.7952941176470547 M
1$
1%
#180000000
0$
0%
#180500000
r0.7929411764705842 M
r0.7929411764705842 F
r0.7929411764705842 ?
r0.7929411764705842 8
1$
1%
#181000000
0$
0%
#181500000
r0.7905882352941136 8
r0.7905882352941136 ?
r0.7905882352941136 F
r0.7905882352941136 M
1$
1%
#182000000
0$
0%
#182500000
r0.788235294117643 M
r0.788235294117643 F
r0.788235294117643 ?
r0.788235294117643 8
1$
1%
#183000000
0$
0%
#183500000
r0.7858823529411725 8
r0.7858823529411725 ?
r0.7858823529411725 F
r0.7858823529411725 M
1$
1%
#184000000
0$
0%
#184500000
r0.7835294117647019 M
r0.7835294117647019 F
r0.7835294117647019 ?
r0.7835294117647019 8
1$
1%
#185000000
0$
0%
#185500000
r0.7811764705882314 8
r0.7811764705882314 ?
r0.7811764705882314 F
r0.7811764705882314 M
1$
1%
#186000000
0$
0%
#186500000
r0.7788235294117608 M
r0.7788235294117608 F
r0.7788235294117608 ?
r0.7788235294117608 8
1$
1%
#187000000
0$
0%
#187500000
r0.7764705882352902 8
r0.7764705882352902 ?
r0.7764705882352902 F
r0.7764705882352902 M
1$
1%
#188000000
0$
0%
#188500000
r0.7741176470588197 M
r0.7741176470588197 F
r0.7741176470588197 ?
r0.7741176470588197 8
1$
1%
#189000000
0$
0%
#189500000
r0.7717647058823491 8
r0.7717647058823491 ?
r0.7717647058823491 F
r0.7717647058823491 M
1$
1%
#190000000
0$
0%
#190500000
r0.7694117647058786 M
r0.7694117647058786 F
r0.7694117647058786 ?
r0.7694117647058786 8
1$
1%
#191000000
0$
0%
#191500000
r0.767058823529408 8
r0.767058823529408 ?
r0.767058823529408 F
r0.767058823529408 M
1$
1%
#192000000
0$
0%
#192500000
r0.7647058823529375 M
r0.7647058823529375 F
r0.7647058823529375 ?
r0.7647058823529375 8
1$
1%
#193000000
0$
0%
#193500000
r0.7623529411764669 8
r0.7623529411764669 ?
r0.7623529411764669 F
r0.7623529411764669 M
1$
1%
#194000000
0$
0%
#194500000
r0.7599999999999963 M
r0.7599999999999963 F
r0.7599999999999963 ?
r0.7599999999999963 8
1$
1%
#195000000
0$
0%
